{
	"input": {
		"item": "heroesexpansion:kree_flesh"
	},
	
	"input_container": {
		"item": "lucraftcore:injection"
	},
	
	"input_fluid": {
		"fluid": "water",
		"amount": 1000
	},
	
	"energy": 5000,
	
	"outputs": {
		"primary": {
			"item": "lucraftcore:injection",
			"nbt": "{\"Injection\": \"heroesexpansion:kree_hybrid\"}",
			"chance": 0.35
		},
		"secondary": {
			"item": "minecraft:rotten_flesh",
			"chance": 0.6
		}
	}
}