{
    "display": {
        "icon": {
            "item": "heroesexpansion:cape",
			"nbt": "{display:{color:11743532}}"
        },
        "title": {
            "translate": "heroesexpansion.advancements.root.title"
        },
        "description": {
            "translate": "heroesexpansion.advancements.root.description"
        },
		"background": "minecraft:textures/blocks/wool_colored_light_blue.png",
        "show_toast": true,
        "announce_to_chat": true
    },
    "criteria": {
        "tick": {
            "trigger": "minecraft:tick"
        }
    }
}