{
  "output": {
    "item": "heroesexpansion:superman_boots"
  },
  "requirements": [
    {
      "item": "lucraftcore:tri_polymer_blue",
      "amount": 4
    },
    {
      "item": "lucraftcore:tri_polymer_red"
    }
  ]
}